{
  "kind": "collectionType",
  "collectionName": "travel_packages",
  "info": {
    "singularName": "travel-package",
    "pluralName": "travel-packages",
    "displayName": "Travel Package",
    "description": ""
  },
  "options": {
    "draftAndPublish": false
  },
  "pluginOptions": {},
  "attributes": {
    "img": {
      "type": "media",
      "multiple": false,
      "required": false,
      "allowedTypes": [
        "images",
        "files",
        "videos",
        "audios"
      ]
    },
    "title": {
      "type": "string"
    },
    "description": {
      "type": "text"
    },
    "price": {
      "type": "integer"
    },
    "order_details": {
      "type": "relation",
      "relation": "oneToMany",
      "target": "api::order-detail.order-detail",
      "mappedBy": "travel_package"
    }
  }
}
